<?xml version="1.0" encoding="UTF-8" standalone="no"?>
<!-- Created with Inkscape (http://www.inkscape.org/) -->

<svg
   xmlns:dc="http://purl.org/dc/elements/1.1/"
   xmlns:cc="http://creativecommons.org/ns#"
   xmlns:rdf="http://www.w3.org/1999/02/22-rdf-syntax-ns#"
   xmlns:svg="http://www.w3.org/2000/svg"
   xmlns="http://www.w3.org/2000/svg"
   xmlns:sodipodi="http://sodipodi.sourceforge.net/DTD/sodipodi-0.dtd"
   xmlns:inkscape="http://www.inkscape.org/namespaces/inkscape"
   width="210mm"
   height="297mm"
   id="svg2"
   version="1.1"
   inkscape:version="0.48.5 r10040"
   sodipodi:docname="convoyeur.svg">
  <defs
     id="defs4">
    <marker
       inkscape:stockid="Arrow1Lend"
       orient="auto"
       refY="0.0"
       refX="0.0"
       id="Arrow1Lend"
       style="overflow:visible;">
      <path
         id="path3873"
         d="M 0.0,0.0 L 5.0,-5.0 L -12.5,0.0 L 5.0,5.0 L 0.0,0.0 z "
         style="fill-rule:evenodd;stroke:#000000;stroke-width:1.0pt;"
         transform="scale(0.8) rotate(180) translate(12.5,0)" />
    </marker>
    <marker
       inkscape:stockid="Arrow1Lstart"
       orient="auto"
       refY="0.0"
       refX="0.0"
       id="Arrow1Lstart"
       style="overflow:visible">
      <path
         id="path3870"
         d="M 0.0,0.0 L 5.0,-5.0 L -12.5,0.0 L 5.0,5.0 L 0.0,0.0 z "
         style="fill-rule:evenodd;stroke:#000000;stroke-width:1.0pt"
         transform="scale(0.8) translate(12.5,0)" />
    </marker>
    <inkscape:perspective
       sodipodi:type="inkscape:persp3d"
       inkscape:vp_x="0 : 526.18109 : 1"
       inkscape:vp_y="0 : 1000 : 0"
       inkscape:vp_z="586.95162 : 877.60966 : 1"
       inkscape:persp3d-origin="372.04724 : 350.78739 : 1"
       id="perspective2987" />
  </defs>
  <sodipodi:namedview
     id="base"
     pagecolor="#ffffff"
     bordercolor="#666666"
     borderopacity="1.0"
     inkscape:pageopacity="0.0"
     inkscape:pageshadow="2"
     inkscape:zoom="0.43852551"
     inkscape:cx="-1379.2644"
     inkscape:cy="1205.4358"
     inkscape:document-units="px"
     inkscape:current-layer="layer1"
     showgrid="false"
     showguides="true"
     inkscape:guide-bbox="true"
     inkscape:window-width="1479"
     inkscape:window-height="904"
     inkscape:window-x="0"
     inkscape:window-y="31"
     inkscape:window-maximized="0" />
  <metadata
     id="metadata7">
    <rdf:RDF>
      <cc:Work
         rdf:about="">
        <dc:format>image/svg+xml</dc:format>
        <dc:type
           rdf:resource="http://purl.org/dc/dcmitype/StillImage" />
        <dc:title></dc:title>
      </cc:Work>
    </rdf:RDF>
  </metadata>
  <g
     inkscape:label="Calque 1"
     inkscape:groupmode="layer"
     id="layer1">
    <path
       sodipodi:type="arc"
       style="fill:none;stroke:#000000;stroke-width:2.1549533;stroke-linecap:butt;stroke-linejoin:round;stroke-miterlimit:4;stroke-opacity:1;stroke-dasharray:none;stroke-dashoffset:0"
       id="path2985"
       sodipodi:cx="-934.28571"
       sodipodi:cy="575.2193"
       sodipodi:rx="40"
       sodipodi:ry="102.85714"
       d="m -894.28571,575.2193 a 40,102.85714 0 1 1 -80,0 40,102.85714 0 1 1 80,0 z"
       transform="matrix(2.6071429,0,0,1,340.67347,-249.57063)"
       inkscape:export-filename="/home/aurelien/local/git/iut-projets/docs/fig/convoyeur.png"
       inkscape:export-xdpi="37.387543"
       inkscape:export-ydpi="37.387543" />
    <path
       sodipodi:type="arc"
       style="fill:none;stroke:#000000;stroke-width:2.15495324;stroke-linecap:butt;stroke-linejoin:round;stroke-miterlimit:4;stroke-opacity:1;stroke-dasharray:none;stroke-dashoffset:0"
       id="path2985-3"
       sodipodi:cx="-934.28571"
       sodipodi:cy="575.2193"
       sodipodi:rx="40"
       sodipodi:ry="102.85714"
       d="m -894.28571,575.2193 a 40,102.85714 0 1 1 -80,0 40,102.85714 0 1 1 80,0 z"
       transform="matrix(2.6071429,0,0,1,1634.1021,-251.57063)"
       inkscape:export-filename="/home/aurelien/local/git/iut-projets/docs/fig/convoyeur.png"
       inkscape:export-xdpi="37.387543"
       inkscape:export-ydpi="37.387543" />
    <path
       style="fill:none;stroke:#000000;stroke-width:3.83385825;stroke-linecap:butt;stroke-linejoin:miter;stroke-miterlimit:4;stroke-opacity:1;stroke-dasharray:none"
       d="m -2107.4285,223.79075 1297.14279,-2.85714 0,0"
       id="path3021"
       inkscape:connector-curvature="0"
       inkscape:export-filename="/home/aurelien/local/git/iut-projets/docs/fig/convoyeur.png"
       inkscape:export-xdpi="37.387543"
       inkscape:export-ydpi="37.387543" />
    <path
       style="fill:none;stroke:#000000;stroke-width:3.47952756;stroke-linecap:butt;stroke-linejoin:miter;stroke-opacity:1;stroke-miterlimit:4;stroke-dasharray:none"
       d="m -2109.4285,427.50504 1297.14277,-2.85714 0,0"
       id="path3021-6"
       inkscape:connector-curvature="0"
       inkscape:export-filename="/home/aurelien/local/git/iut-projets/docs/fig/convoyeur.png"
       inkscape:export-xdpi="37.387543"
       inkscape:export-ydpi="37.387543" />
    <rect
       style="fill:none;stroke:#000000;stroke-width:3.47952747;stroke-linecap:butt;stroke-linejoin:round;stroke-miterlimit:4;stroke-opacity:1;stroke-dasharray:none;stroke-dashoffset:0"
       id="rect3041"
       width="140"
       height="605.71429"
       x="-1788.5714"
       y="-385.06638"
       ry="70"
       rx="0"
       inkscape:export-filename="/home/aurelien/local/git/iut-projets/docs/fig/convoyeur.png"
       inkscape:export-xdpi="37.387543"
       inkscape:export-ydpi="37.387543" />
    <rect
       style="fill:none;stroke:#000000;stroke-width:3.47952747;stroke-linecap:butt;stroke-linejoin:round;stroke-miterlimit:4;stroke-opacity:1;stroke-dasharray:none;stroke-dashoffset:0"
       id="rect3043"
       width="240"
       height="174.28572"
       x="-1455.7021"
       y="47.208633"
       ry="70"
       inkscape:export-filename="/home/aurelien/local/git/iut-projets/docs/fig/convoyeur.png"
       inkscape:export-xdpi="37.387543"
       inkscape:export-ydpi="37.387543" />
    <path
       id="path3855"
       style="fill:none;stroke:#000000;stroke-width:3.47952747;stroke-linecap:butt;stroke-linejoin:round;stroke-miterlimit:4;stroke-opacity:1;stroke-dashoffset:0"
       d="m -1511.9028,-311.85133 c 9.8478,11.19683 1.6877,35.55964 -18.2262,54.41586 -19.6278,18.58517 -43.4138,24.9293 -53.5179,14.27412 m 49.0758,-130.42849 -114.5174,-3.52769 -0.2184,-0.22358 0,0.221 -0.221,-0.003 0.2183,0.22358 0.8473,114.56948 41.9187,42.92798 57.2373,-55.89176 -0.022,-0.0222 56.6783,-55.34596 -41.9188,-42.92799 z"
       inkscape:connector-curvature="0"
       inkscape:export-filename="/home/aurelien/local/git/iut-projets/docs/fig/convoyeur.png"
       inkscape:export-xdpi="37.387543"
       inkscape:export-ydpi="37.387543" />
    <path
       style="fill:none;stroke:#000000;stroke-width:2.41653543;stroke-linecap:butt;stroke-linejoin:miter;stroke-opacity:1;stroke-miterlimit:4;stroke-dasharray:19.33228346,19.33228346;stroke-dashoffset:0;marker-start:none;marker-mid:none;marker-end:url(#Arrow1Lend)"
       d="m -1550.651,-274.81262 243.9995,287.326507"
       id="path3864"
       inkscape:connector-curvature="0"
       inkscape:export-filename="/home/aurelien/local/git/iut-projets/docs/fig/convoyeur.png"
       inkscape:export-xdpi="37.387543"
       inkscape:export-ydpi="37.387543" />
    <text
       xml:space="preserve"
       style="font-size:72px;font-style:normal;font-weight:normal;line-height:125%;letter-spacing:0px;word-spacing:0px;fill:#000000;fill-opacity:1;stroke:none;font-family:Bitstream Vera Sans"
       x="-1562.0529"
       y="-416.1955"
       id="text5042"
       sodipodi:linespacing="125%"
       inkscape:export-filename="/home/aurelien/local/git/iut-projets/docs/fig/convoyeur.png"
       inkscape:export-xdpi="37.387543"
       inkscape:export-ydpi="37.387543"><tspan
         sodipodi:role="line"
         id="tspan5044"
         x="-1562.0529"
         y="-416.1955">camera</tspan></text>
    <text
       xml:space="preserve"
       style="font-size:72px;font-style:normal;font-weight:normal;line-height:125%;letter-spacing:0px;word-spacing:0px;fill:#000000;fill-opacity:1;stroke:none;font-family:Bitstream Vera Sans"
       x="-1411.8662"
       y="150.77528"
       id="text5046"
       sodipodi:linespacing="125%"
       inkscape:export-filename="/home/aurelien/local/git/iut-projets/docs/fig/convoyeur.png"
       inkscape:export-xdpi="37.387543"
       inkscape:export-ydpi="37.387543"><tspan
         sodipodi:role="line"
         id="tspan5048"
         x="-1411.8662"
         y="150.77528">objet</tspan></text>
    <text
       xml:space="preserve"
       style="font-size:72px;font-style:normal;font-weight:normal;line-height:125%;letter-spacing:0px;word-spacing:0px;fill:#000000;fill-opacity:1;stroke:none;font-family:Bitstream Vera Sans"
       x="-1552.9313"
       y="491.39139"
       id="text5050"
       sodipodi:linespacing="125%"
       inkscape:export-filename="/home/aurelien/local/git/iut-projets/docs/fig/convoyeur.png"
       inkscape:export-xdpi="37.387543"
       inkscape:export-ydpi="37.387543"><tspan
         sodipodi:role="line"
         id="tspan5052"
         x="-1552.9313"
         y="491.39139">tapis convoyeur</tspan></text>
    <text
       xml:space="preserve"
       style="font-size:72px;font-style:normal;font-weight:normal;line-height:125%;letter-spacing:0px;word-spacing:0px;fill:#000000;fill-opacity:1;stroke:none;font-family:Bitstream Vera Sans"
       x="-745.68066"
       y="-101.50455"
       id="text5054"
       sodipodi:linespacing="125%"
       inkscape:export-filename="/home/aurelien/local/git/iut-projets/docs/fig/convoyeur.png"
       inkscape:export-xdpi="37.387543"
       inkscape:export-ydpi="37.387543"><tspan
         sodipodi:role="line"
         id="tspan5056"
         x="-745.68066"
         y="-101.50455">tri</tspan></text>
    <path
       style="fill:none;stroke:#000000;stroke-width:1px;stroke-linecap:butt;stroke-linejoin:miter;stroke-opacity:1;marker-mid:none;marker-end:url(#Arrow1Lend)"
       d="m -1986.2015,203.14895 c 59.2896,0 59.2896,0 59.2896,0"
       id="path5058"
       inkscape:connector-curvature="0"
       inkscape:export-filename="/home/aurelien/local/git/iut-projets/docs/fig/convoyeur.png"
       inkscape:export-xdpi="37.387543"
       inkscape:export-ydpi="37.387543" />
    <path
       sodipodi:type="arc"
       style="fill:none;stroke:#000000;stroke-width:3.47952747;stroke-linecap:butt;stroke-linejoin:round;stroke-miterlimit:4;stroke-opacity:1;stroke-dasharray:none;stroke-dashoffset:0"
       id="path5455"
       sodipodi:cx="-779.88623"
       sodipodi:cy="-597.48486"
       sodipodi:rx="31.925167"
       sodipodi:ry="30.784983"
       d="m -747.96106,-597.48486 a 31.925167,30.784983 0 1 1 -63.85034,0 31.925167,30.784983 0 1 1 63.85034,0 z"
       transform="translate(-36.485905,572.37264)"
       inkscape:export-filename="/home/aurelien/local/git/iut-projets/docs/fig/convoyeur.png"
       inkscape:export-xdpi="37.387543"
       inkscape:export-ydpi="37.387543" />
    <path
       style="fill:none;stroke:#000000;stroke-width:3.47952747;stroke-linecap:butt;stroke-linejoin:miter;stroke-miterlimit:4;stroke-opacity:1;stroke-dasharray:none"
       d="m -818.93287,-58.457924 0,-66.130696"
       id="path5457"
       inkscape:connector-curvature="0"
       inkscape:export-filename="/home/aurelien/local/git/iut-projets/docs/fig/convoyeur.png"
       inkscape:export-xdpi="37.387543"
       inkscape:export-ydpi="37.387543" />
    <path
       transform="translate(-28.523313,585.7558)"
       sodipodi:type="arc"
       style="fill:none;stroke:#000000;stroke-width:3.47952747;stroke-linecap:butt;stroke-linejoin:round;stroke-miterlimit:4;stroke-opacity:1;stroke-dasharray:none;stroke-dashoffset:0"
       id="path5455-3"
       sodipodi:cx="-779.88623"
       sodipodi:cy="-597.48486"
       sodipodi:rx="31.925167"
       sodipodi:ry="30.784983"
       d="m -747.96106,-597.48486 a 31.925167,30.784983 0 0 1 -45.79024,27.73015"
       sodipodi:start="0"
       sodipodi:end="2.0200564"
       sodipodi:open="true"
       inkscape:export-filename="/home/aurelien/local/git/iut-projets/docs/fig/convoyeur.png"
       inkscape:export-xdpi="37.387543"
       inkscape:export-ydpi="37.387543" />
    <path
       style="fill:none;stroke:#000000;stroke-width:3.47952747;stroke-linecap:butt;stroke-linejoin:miter;stroke-miterlimit:4;stroke-opacity:1;stroke-dasharray:none"
       d="m -788.1666,16.794256 72.97181,109.457724"
       id="path5479"
       inkscape:connector-curvature="0"
       inkscape:export-filename="/home/aurelien/local/git/iut-projets/docs/fig/convoyeur.png"
       inkscape:export-xdpi="37.387543"
       inkscape:export-ydpi="37.387543" />
  </g>
</svg>
